{
	"configuration": {
		"status": "error",
		"name": "WorldSynth Logg config",
		"packages": "net.worldsynth",
		"ThresholdFilter": {
			"level": "debug"
		},
		"appenders": {
			"Console": {
				"name": "STDOUT",
				"PatternLayout": {
					"pattern": "%d{HH:mm:ss} %p %c - %m%n"
				}
			},
			"File": {
				"name": "LOGFILE",
				"fileName": "logs/worldsynth_${date:yyyy-MM-dd'_'HH-mm-ss}.log",
				"PatternLayout": {
					"pattern": "%d{HH:mm:ss} %p %c - %m%n"
				}
			}
		},
		"loggers": {
			"root": {
				"level": "debug",
				"AppenderRef": [
					{
						"ref": "STDOUT"
					},
					{
						"ref": "LOGFILE"
					}
				]
			}
		}
	}
}